…
    leeds

    ## Simple feature collection with 482 features and 129 fields
    ## Geometry type: MULTIPOLYGON
    ## Dimension:     XY
    ## Bounding box:  xmin: -1.800362 ymin: 53.699 xmax: -1.292229 ymax: 53.94589
    ## Geodetic CRS:  WGS 84
    ## # A tibble: 482 × 130
    ##    geo_code  geo_name   lad11cd   lad_name   all bicycle  foot car_driver
    ##  * <chr>     <chr>      <chr>     <chr>    <dbl>   <dbl> <dbl>      <dbl>
    ##  1 E01011556 Leeds 015A E08000035 Leeds      756      10    34        519
    ##  2 E01011652 Leeds 024C E08000035 Leeds      671      20    37        459
    ##  3 E01011307 Leeds 103A E08000035 Leeds      640       7    44        431
    ##  4 E01011280 Leeds 008D E08000035 Leeds      879       6    73        588
    ##  5 E01011281 Leeds 059A E08000035 Leeds      868      26    72        494
    ##  6 E01011482 Leeds 056D E08000035 Leeds     1029      48   221        400
    ##  7 E01011274 Leeds 010C E08000035 Leeds      554      12   101        310
    ##  8 E01011276 Leeds 011C E08000035 Leeds      669      14    66        466
    ##  9 E01011277 Leeds 014A E08000035 Leeds      823      13    46        618
    ## 10 E01011275 Leeds 010D E08000035 Leeds      617      10    70        414
    ## # … with 472 more rows, and 122 more variables: car_passenger <dbl>,
    ## #   motorbike <dbl>, train_tube <dbl>, bus <dbl>, taxi_other <dbl>,
    ## #   govtarget_slc <dbl>, govtarget_sic <dbl>, govtarget_slw <dbl>,
    ## #   govtarget_siw <dbl>, govtarget_sld <dbl>, govtarget_sid <dbl>,
    ## #   govtarget_slp <dbl>, govtarget_sip <dbl>, govtarget_slm <dbl>,
    ## #   govtarget_sim <dbl>, govtarget_slpt <dbl>, govtarget_sipt <dbl>,
    ## #   govnearmkt_slc <dbl>, govnearmkt_sic <dbl>, govnearmkt_slw <dbl>, …
…
